<?xml version="1.0" encoding="UTF-8" standalone="no"?>
<svg
   xmlns:dc="http://purl.org/dc/elements/1.1/"
   xmlns:cc="http://creativecommons.org/ns#"
   xmlns:rdf="http://www.w3.org/1999/02/22-rdf-syntax-ns#"
   xmlns:svg="http://www.w3.org/2000/svg"
   xmlns="http://www.w3.org/2000/svg"
   xmlns:xlink="http://www.w3.org/1999/xlink"
   xmlns:sodipodi="http://sodipodi.sourceforge.net/DTD/sodipodi-0.dtd"
   xmlns:inkscape="http://www.inkscape.org/namespaces/inkscape"
   viewBox="0 0 37 23"
   version="1.1"
   id="svg7"
   sodipodi:docname="Controller_Plugin.svg"
   inkscape:version="0.92.4 (f8dce91, 2019-08-02)"
   width="37"
   height="23">
  <metadata
     id="metadata13">
    <rdf:RDF>
      <cc:Work
         rdf:about="">
        <dc:format>image/svg+xml</dc:format>
        <dc:type
           rdf:resource="http://purl.org/dc/dcmitype/StillImage" />
        <dc:title></dc:title>
      </cc:Work>
    </rdf:RDF>
  </metadata>
  <defs
     id="defs11">
    <linearGradient
       inkscape:collect="always"
       id="linearGradient1561">
      <stop
         style="stop-color:#0080ff;stop-opacity:1;"
         offset="0"
         id="stop1557" />
      <stop
         style="stop-color:#b50000;stop-opacity:1"
         offset="1"
         id="stop1559" />
    </linearGradient>
    <linearGradient
       inkscape:collect="always"
       id="linearGradient1546">
      <stop
         style="stop-color:#703163;stop-opacity:1;"
         offset="0"
         id="stop1542" />
      <stop
         style="stop-color:#0080ff;stop-opacity:1"
         offset="1"
         id="stop1544" />
    </linearGradient>
    <linearGradient
       inkscape:collect="always"
       xlink:href="#linearGradient1546"
       id="linearGradient1552"
       gradientUnits="userSpaceOnUse"
       x1="-81.037025"
       y1="-26.854244"
       x2="-81.037025"
       y2="-22.432163"
       gradientTransform="translate(1.4519141e-6,0.36661806)" />
    <linearGradient
       inkscape:collect="always"
       xlink:href="#linearGradient1561"
       id="linearGradient1563"
       x1="-80.930984"
       y1="-39.377506"
       x2="-80.885132"
       y2="-44.928799"
       gradientUnits="userSpaceOnUse"
       gradientTransform="translate(0,-1.4824272)" />
  </defs>
  <sodipodi:namedview
     pagecolor="#ffffff"
     bordercolor="#666666"
     borderopacity="1"
     objecttolerance="10"
     gridtolerance="10"
     guidetolerance="10"
     inkscape:pageopacity="0"
     inkscape:pageshadow="2"
     inkscape:window-width="1920"
     inkscape:window-height="1027"
     id="namedview9"
     showgrid="false"
     inkscape:zoom="11.313709"
     inkscape:cx="-14.366074"
     inkscape:cy="2.9391101"
     inkscape:window-x="0"
     inkscape:window-y="25"
     inkscape:window-maximized="1"
     inkscape:current-layer="g1578"
     inkscape:lockguides="true"
     showguides="true">
    <inkscape:grid
       type="xygrid"
       id="grid2210"
       originx="29.061455"
       originy="45.348823" />
  </sodipodi:namedview>
  <style
     id="style2">.icon-canvas-transparent{opacity:0;fill:#f6f6f6}.icon-vs-out{fill:#f6f6f6}.icon-folder{fill:#dcb67a}</style>
  <g
     id="g1430"
     transform="translate(31.072315,-38.340138)" />
  <g
     id="g856"
     transform="matrix(0.90677966,0,0,0.90677966,12.552985,-38.650107)">
    <g
       id="g987"
       transform="translate(19.028038,1.4636421)">
      <g
         transform="matrix(0.39790422,0,0,0.39790422,0.83772373,1.7224819)"
         id="g923">
        <g
           id="g2228"
           transform="translate(30.69656,-0.72493491)">
          <g
             id="g1425"
             transform="matrix(0,0.97138294,-0.97138294,0,-13.19697,62.049096)" />
          <g
             id="g2483"
             transform="translate(4.5428274,-0.25556701)">
            <g
               id="g2847"
               transform="matrix(0.7497474,0,0,0.75098312,-82.783213,65.370601)" />
            <g
               id="g1542"
               transform="translate(-90.646487,70.394242)">
              <g
                 id="g1695">
                <g
                   transform="translate(90.646487,-70.394242)"
                   id="g1563">
                  <g
                     id="g1555"
                     transform="translate(0.01350987,0.02869167)">
                    <path
                       style="color:#000000;font-style:normal;font-variant:normal;font-weight:normal;font-stretch:normal;font-size:medium;line-height:normal;font-family:sans-serif;font-variant-ligatures:normal;font-variant-position:normal;font-variant-caps:normal;font-variant-numeric:normal;font-variant-alternates:normal;font-feature-settings:normal;text-indent:0;text-align:start;text-decoration:none;text-decoration-line:none;text-decoration-style:solid;text-decoration-color:#000000;letter-spacing:normal;word-spacing:normal;text-transform:none;writing-mode:lr-tb;direction:ltr;text-orientation:mixed;dominant-baseline:auto;baseline-shift:baseline;text-anchor:start;white-space:normal;shape-padding:0;clip-rule:nonzero;display:inline;overflow:visible;visibility:visible;opacity:1;isolation:auto;mix-blend-mode:normal;color-interpolation:sRGB;color-interpolation-filters:linearRGB;solid-color:#000000;solid-opacity:1;vector-effect:none;fill:#ffffff;fill-opacity:1;fill-rule:nonzero;stroke:none;stroke-width:5.55619574;stroke-linecap:square;stroke-linejoin:miter;stroke-miterlimit:4;stroke-dasharray:none;stroke-dashoffset:0;stroke-opacity:1;paint-order:markers stroke fill;color-rendering:auto;image-rendering:auto;shape-rendering:auto;text-rendering:auto;enable-background:accumulate"
                       d="m -119.9707,100.06445 v 2.77735 2.78125 58.1875 h 102.546872 v -63.7461 z m 5.55664,5.55664 h 91.435544 v 0.002 h -91.435544 z m 5.55468,5.5586 h 80.324224 v 41.51562 h -80.324224 z m -5.55468,47.07226 h 91.435544 v 0.002 h -91.435544 z"
                       id="rect1520"
                       inkscape:connector-curvature="0" />
                    <path
                       style="color:#000000;font-style:normal;font-variant:normal;font-weight:normal;font-stretch:normal;font-size:medium;line-height:normal;font-family:sans-serif;font-variant-ligatures:normal;font-variant-position:normal;font-variant-caps:normal;font-variant-numeric:normal;font-variant-alternates:normal;font-feature-settings:normal;text-indent:0;text-align:start;text-decoration:none;text-decoration-line:none;text-decoration-style:solid;text-decoration-color:#000000;letter-spacing:normal;word-spacing:normal;text-transform:none;writing-mode:lr-tb;direction:ltr;text-orientation:mixed;dominant-baseline:auto;baseline-shift:baseline;text-anchor:start;white-space:normal;shape-padding:0;clip-rule:nonzero;display:inline;overflow:visible;visibility:visible;opacity:1;isolation:auto;mix-blend-mode:normal;color-interpolation:sRGB;color-interpolation-filters:linearRGB;solid-color:#000000;solid-opacity:1;vector-effect:none;fill:#323232;fill-opacity:1;fill-rule:nonzero;stroke:none;stroke-width:5.5569191;stroke-linecap:square;stroke-linejoin:miter;stroke-miterlimit:4;stroke-dasharray:none;stroke-dashoffset:0;stroke-opacity:1;paint-order:markers stroke fill;color-rendering:auto;image-rendering:auto;shape-rendering:auto;text-rendering:auto;enable-background:accumulate"
                       d="m -117.19177,102.8426 v 2.78002 55.40899 h 96.990435 V 102.8426 Z m 5.55374,5.55809 h 85.881001 v 47.07283 h -85.881001 z"
                       id="rect1520-9"
                       inkscape:connector-curvature="0" />
                    <path
                       inkscape:connector-curvature="0"
                       style="opacity:1;fill:#eeeeee;fill-opacity:1;fill-rule:nonzero;stroke:none;stroke-width:5.5569191;stroke-linecap:square;stroke-linejoin:miter;stroke-miterlimit:4;stroke-dasharray:none;stroke-dashoffset:0;stroke-opacity:1;paint-order:markers stroke fill"
                       d="m -114.41278,105.63626 h 91.483755 v 52.61615 h -91.483755 z"
                       id="rect1520-3"
                       inkscape:transform-center-x="-94.250001"
                       inkscape:transform-center-y="-14.375" />
                  </g>
                </g>
                <g
                   transform="translate(-4.157296,-67.209619)"
                   id="g1578">
                  <rect
                     transform="translate(94.803783,-3.1846221)"
                     y="111.16268"
                     x="-108.8812"
                     height="41.526249"
                     width="63.866039"
                     id="rect1557"
                     style="opacity:1;fill:#ffffff;fill-opacity:1;fill-rule:nonzero;stroke:#323232;stroke-width:5.53032827;stroke-linecap:square;stroke-linejoin:miter;stroke-miterlimit:4;stroke-dasharray:none;stroke-dashoffset:0;stroke-opacity:1;paint-order:markers stroke fill" />
                  <rect
                     y="107.97806"
                     x="-14.077419"
                     height="41.526249"
                     width="63.866039"
                     id="rect1557-9"
                     style="opacity:1;fill:#ffffff;fill-opacity:1;fill-rule:nonzero;stroke:none;stroke-width:5.53032827;stroke-linecap:square;stroke-linejoin:miter;stroke-miterlimit:4;stroke-dasharray:none;stroke-dashoffset:0;stroke-opacity:1;paint-order:markers stroke fill" />
                  <g
                     id="g826"
                     transform="matrix(-0.38680757,3.6438566,-3.6263846,-0.39427532,102.33083,138.82184)">
                    <path
                       style="fill:#ffffff;fill-opacity:1"
                       id="outline"
                       d="m 5.0148708,19.438181 -1.519,-1.519 h -0.828 l -1.453,1.453 -0.93400005,-0.934 -1.86599995,1.867 -0.933,-0.933 -2.348,2.347 0.934,0.933 -1.326,1.326 c -0.418,0.418 -0.55,1.036 -0.398,1.589 2.1027487,3.752391 7.2843017,-2.638762 1.7762608,-0.34323 -0.7748504,3.38551 1.6870567,3.921922 2.8357392,2.96823 l 1.32599995,-1.326 0.93300005,0.935 2.347,-2.349 -0.933,-0.933 1.866,-1.867 -0.933,-0.933 1.453,-1.453 z"
                       class="icon-vs-out"
                       inkscape:connector-curvature="0"
                       sodipodi:nodetypes="cccccccccsccccccccccc" />
                    <path
                       style="fill:#00bf77;fill-opacity:1"
                       id="iconBg"
                       d="m -3.4521292,21.719181 0.933,-0.933 0.934,0.933 1.86699995,-1.867 0.93300005,0.934 1.867,-1.867 0.933,0.933 -1.867,1.867 0.933,0.933 -1.866,1.867 0.933,0.933 -0.933,0.934 z m 0.767,4.833 c -0.225,0.226 -0.227,0.654 0.027,0.907 0.254,0.253 0.681,0.252 0.907,0.026 l 1.09999995,-1.1 -0.93399995,-0.933 z m -1.866,-1.867 c -0.226,0.226 -0.227,0.654 0.026,0.907 0.253,0.254 0.681,0.252 0.907,0.027 l 1.1,-1.1 -0.934,-0.933 z"
                       class="icon-vs-bg"
                       inkscape:connector-curvature="0"
                       sodipodi:nodetypes="ccccccccccccccsscccsccccs" />
                  </g>
                </g>
                <g
                   id="g1610-7-5"
                   transform="translate(90.247967,-53.794607)">
                  <g
                     transform="translate(0.45535447)"
                     id="g1676">
                    <g
                       id="g1610"
                       transform="translate(-1.0588328e-6,-16.602507)">
                      <path
                         inkscape:connector-curvature="0"
                         id="rect1589"
                         d="m -39.585938,108.40039 v 2.77149 11.08007 h 13.888672 v -13.85156 z m 5.541016,5.54297 h 2.804688 v 2.76562 h -2.804688 z"
                         style="color:#000000;font-style:normal;font-variant:normal;font-weight:normal;font-stretch:normal;font-size:medium;line-height:normal;font-family:sans-serif;font-variant-ligatures:normal;font-variant-position:normal;font-variant-caps:normal;font-variant-numeric:normal;font-variant-alternates:normal;font-feature-settings:normal;text-indent:0;text-align:start;text-decoration:none;text-decoration-line:none;text-decoration-style:solid;text-decoration-color:#000000;letter-spacing:normal;word-spacing:normal;text-transform:none;writing-mode:lr-tb;direction:ltr;text-orientation:mixed;dominant-baseline:auto;baseline-shift:baseline;text-anchor:start;white-space:normal;shape-padding:0;clip-rule:nonzero;display:inline;overflow:visible;visibility:visible;opacity:1;isolation:auto;mix-blend-mode:normal;color-interpolation:sRGB;color-interpolation-filters:linearRGB;solid-color:#000000;solid-opacity:1;vector-effect:none;fill:#323232;fill-opacity:1;fill-rule:nonzero;stroke:none;stroke-width:5.54235697;stroke-linecap:butt;stroke-linejoin:miter;stroke-miterlimit:4;stroke-dasharray:none;stroke-dashoffset:0;stroke-opacity:1;paint-order:markers stroke fill;color-rendering:auto;image-rendering:auto;shape-rendering:auto;text-rendering:auto;enable-background:accumulate" />
                      <rect
                         y="111.17204"
                         x="-36.814541"
                         height="8.3082752"
                         width="8.3458796"
                         id="rect1589-6"
                         style="opacity:1;fill:#f80060;fill-opacity:1;fill-rule:nonzero;stroke:none;stroke-width:5.54235697;stroke-linecap:butt;stroke-linejoin:miter;stroke-miterlimit:4;stroke-dasharray:none;stroke-dashoffset:0;stroke-opacity:1;paint-order:markers stroke fill" />
                    </g>
                    <g
                       transform="translate(-1.0588328e-6,16.602511)"
                       id="g1610-7">
                      <path
                         inkscape:connector-curvature="0"
                         id="rect1589-5"
                         d="m -39.585938,108.40039 v 2.77149 11.08007 h 13.888672 v -13.85156 z m 5.541016,5.54297 h 2.804688 v 2.76562 h -2.804688 z"
                         style="color:#000000;font-style:normal;font-variant:normal;font-weight:normal;font-stretch:normal;font-size:medium;line-height:normal;font-family:sans-serif;font-variant-ligatures:normal;font-variant-position:normal;font-variant-caps:normal;font-variant-numeric:normal;font-variant-alternates:normal;font-feature-settings:normal;text-indent:0;text-align:start;text-decoration:none;text-decoration-line:none;text-decoration-style:solid;text-decoration-color:#000000;letter-spacing:normal;word-spacing:normal;text-transform:none;writing-mode:lr-tb;direction:ltr;text-orientation:mixed;dominant-baseline:auto;baseline-shift:baseline;text-anchor:start;white-space:normal;shape-padding:0;clip-rule:nonzero;display:inline;overflow:visible;visibility:visible;opacity:1;isolation:auto;mix-blend-mode:normal;color-interpolation:sRGB;color-interpolation-filters:linearRGB;solid-color:#000000;solid-opacity:1;vector-effect:none;fill:#323232;fill-opacity:1;fill-rule:nonzero;stroke:none;stroke-width:5.54235697;stroke-linecap:butt;stroke-linejoin:miter;stroke-miterlimit:4;stroke-dasharray:none;stroke-dashoffset:0;stroke-opacity:1;paint-order:markers stroke fill;color-rendering:auto;image-rendering:auto;shape-rendering:auto;text-rendering:auto;enable-background:accumulate" />
                      <rect
                         y="111.17204"
                         x="-36.814541"
                         height="8.3082752"
                         width="8.3458796"
                         id="rect1589-6-3"
                         style="opacity:1;fill:#f80060;fill-opacity:1;fill-rule:nonzero;stroke:none;stroke-width:5.54235697;stroke-linecap:butt;stroke-linejoin:miter;stroke-miterlimit:4;stroke-dasharray:none;stroke-dashoffset:0;stroke-opacity:1;paint-order:markers stroke fill" />
                    </g>
                    <path
                       inkscape:connector-curvature="0"
                       id="rect1589-5-6"
                       d="m -39.585938,108.40039 v 2.77149 11.08007 h 13.888672 v -13.85156 z m 5.541016,5.54297 h 2.804688 v 2.76562 h -2.804688 z"
                       style="color:#000000;font-style:normal;font-variant:normal;font-weight:normal;font-stretch:normal;font-size:medium;line-height:normal;font-family:sans-serif;font-variant-ligatures:normal;font-variant-position:normal;font-variant-caps:normal;font-variant-numeric:normal;font-variant-alternates:normal;font-feature-settings:normal;text-indent:0;text-align:start;text-decoration:none;text-decoration-line:none;text-decoration-style:solid;text-decoration-color:#000000;letter-spacing:normal;word-spacing:normal;text-transform:none;writing-mode:lr-tb;direction:ltr;text-orientation:mixed;dominant-baseline:auto;baseline-shift:baseline;text-anchor:start;white-space:normal;shape-padding:0;clip-rule:nonzero;display:inline;overflow:visible;visibility:visible;opacity:1;isolation:auto;mix-blend-mode:normal;color-interpolation:sRGB;color-interpolation-filters:linearRGB;solid-color:#000000;solid-opacity:1;vector-effect:none;fill:#323232;fill-opacity:1;fill-rule:nonzero;stroke:none;stroke-width:5.54235697;stroke-linecap:butt;stroke-linejoin:miter;stroke-miterlimit:4;stroke-dasharray:none;stroke-dashoffset:0;stroke-opacity:1;paint-order:markers stroke fill;color-rendering:auto;image-rendering:auto;shape-rendering:auto;text-rendering:auto;enable-background:accumulate" />
                  </g>
                  <rect
                     style="opacity:1;fill:#f80060;fill-opacity:1;fill-rule:nonzero;stroke:none;stroke-width:5.54235697;stroke-linecap:butt;stroke-linejoin:miter;stroke-miterlimit:4;stroke-dasharray:none;stroke-dashoffset:0;stroke-opacity:1;paint-order:markers stroke fill"
                     id="rect1589-6-3-2"
                     width="8.3458796"
                     height="8.3082752"
                     x="-36.359188"
                     y="111.17204" />
                </g>
              </g>
            </g>
          </g>
        </g>
      </g>
    </g>
  </g>
</svg>
